2012/08/03 10:13:30-WARNING: Micrelec Stoped communicating...
2012/08/03 10:15:36-WARNING: Error no channel for side: 1
2012/08/03 10:18:00-WARNING: Micrelec Stoped communicating...
2012/08/03 10:31:46-WARNING: Error no channel for side: 1
2012/08/03 10:38:25-WARNING: Micrelec Stoped communicating...
2012/08/03 10:41:36-WARNING: Error no channel for side: 1
